('S:\\ApplicationNative\\yaltc\\project\\build\\main\\PYZ-00.pyz',
 [('os', 'C:\\Python310\\lib\\os.py', 'PYMODULE'),
  ('subprocess', 'C:\\Python310\\lib\\subprocess.py', 'PYMODULE'),
  ('selectors', 'C:\\Python310\\lib\\selectors.py', 'PYMODULE'),
  ('contextlib', 'C:\\Python310\\lib\\contextlib.py', 'PYMODULE'),
  ('threading', 'C:\\Python310\\lib\\threading.py', 'PYMODULE'),
  ('_threading_local', 'C:\\Python310\\lib\\_threading_local.py', 'PYMODULE'),
  ('signal', 'C:\\Python310\\lib\\signal.py', 'PYMODULE'),
  ('_strptime', 'C:\\Python310\\lib\\_strptime.py', 'PYMODULE'),
  ('datetime', 'C:\\Python310\\lib\\datetime.py', 'PYMODULE'),
  ('calendar', 'C:\\Python310\\lib\\calendar.py', 'PYMODULE'),
  ('argparse', 'C:\\Python310\\lib\\argparse.py', 'PYMODULE'),
  ('textwrap', 'C:\\Python310\\lib\\textwrap.py', 'PYMODULE'),
  ('shutil', 'C:\\Python310\\lib\\shutil.py', 'PYMODULE'),
  ('zipfile', 'C:\\Python310\\lib\\zipfile.py', 'PYMODULE'),
  ('py_compile', 'C:\\Python310\\lib\\py_compile.py', 'PYMODULE'),
  ('importlib.machinery',
   'C:\\Python310\\lib\\importlib\\machinery.py',
   'PYMODULE'),
  ('importlib', 'C:\\Python310\\lib\\importlib\\__init__.py', 'PYMODULE'),
  ('importlib.abc', 'C:\\Python310\\lib\\importlib\\abc.py', 'PYMODULE'),
  ('typing', 'C:\\Python310\\lib\\typing.py', 'PYMODULE'),
  ('importlib._abc', 'C:\\Python310\\lib\\importlib\\_abc.py', 'PYMODULE'),
  ('importlib._bootstrap',
   'C:\\Python310\\lib\\importlib\\_bootstrap.py',
   'PYMODULE'),
  ('importlib._bootstrap_external',
   'C:\\Python310\\lib\\importlib\\_bootstrap_external.py',
   'PYMODULE'),
  ('importlib.metadata',
   'C:\\Python310\\lib\\importlib\\metadata\\__init__.py',
   'PYMODULE'),
  ('importlib.metadata._itertools',
   'C:\\Python310\\lib\\importlib\\metadata\\_itertools.py',
   'PYMODULE'),
  ('importlib.metadata._functools',
   'C:\\Python310\\lib\\importlib\\metadata\\_functools.py',
   'PYMODULE'),
  ('importlib.metadata._collections',
   'C:\\Python310\\lib\\importlib\\metadata\\_collections.py',
   'PYMODULE'),
  ('importlib.metadata._meta',
   'C:\\Python310\\lib\\importlib\\metadata\\_meta.py',
   'PYMODULE'),
  ('importlib.metadata._adapters',
   'C:\\Python310\\lib\\importlib\\metadata\\_adapters.py',
   'PYMODULE'),
  ('importlib.metadata._text',
   'C:\\Python310\\lib\\importlib\\metadata\\_text.py',
   'PYMODULE'),
  ('email.message', 'C:\\Python310\\lib\\email\\message.py', 'PYMODULE'),
  ('email.policy', 'C:\\Python310\\lib\\email\\policy.py', 'PYMODULE'),
  ('email.contentmanager',
   'C:\\Python310\\lib\\email\\contentmanager.py',
   'PYMODULE'),
  ('email.quoprimime', 'C:\\Python310\\lib\\email\\quoprimime.py', 'PYMODULE'),
  ('string', 'C:\\Python310\\lib\\string.py', 'PYMODULE'),
  ('email.headerregistry',
   'C:\\Python310\\lib\\email\\headerregistry.py',
   'PYMODULE'),
  ('email._header_value_parser',
   'C:\\Python310\\lib\\email\\_header_value_parser.py',
   'PYMODULE'),
  ('urllib', 'C:\\Python310\\lib\\urllib\\__init__.py', 'PYMODULE'),
  ('email.iterators', 'C:\\Python310\\lib\\email\\iterators.py', 'PYMODULE'),
  ('email.generator', 'C:\\Python310\\lib\\email\\generator.py', 'PYMODULE'),
  ('random', 'C:\\Python310\\lib\\random.py', 'PYMODULE'),
  ('statistics', 'C:\\Python310\\lib\\statistics.py', 'PYMODULE'),
  ('decimal', 'C:\\Python310\\lib\\decimal.py', 'PYMODULE'),
  ('_pydecimal', 'C:\\Python310\\lib\\_pydecimal.py', 'PYMODULE'),
  ('contextvars', 'C:\\Python310\\lib\\contextvars.py', 'PYMODULE'),
  ('fractions', 'C:\\Python310\\lib\\fractions.py', 'PYMODULE'),
  ('numbers', 'C:\\Python310\\lib\\numbers.py', 'PYMODULE'),
  ('hashlib', 'C:\\Python310\\lib\\hashlib.py', 'PYMODULE'),
  ('logging', 'C:\\Python310\\lib\\logging\\__init__.py', 'PYMODULE'),
  ('pickle', 'C:\\Python310\\lib\\pickle.py', 'PYMODULE'),
  ('pprint', 'C:\\Python310\\lib\\pprint.py', 'PYMODULE'),
  ('dataclasses', 'C:\\Python310\\lib\\dataclasses.py', 'PYMODULE'),
  ('inspect', 'C:\\Python310\\lib\\inspect.py', 'PYMODULE'),
  ('token', 'C:\\Python310\\lib\\token.py', 'PYMODULE'),
  ('dis', 'C:\\Python310\\lib\\dis.py', 'PYMODULE'),
  ('opcode', 'C:\\Python310\\lib\\opcode.py', 'PYMODULE'),
  ('ast', 'C:\\Python310\\lib\\ast.py', 'PYMODULE'),
  ('doctest', 'C:\\Python310\\lib\\doctest.py', 'PYMODULE'),
  ('unittest', 'C:\\Python310\\lib\\unittest\\__init__.py', 'PYMODULE'),
  ('unittest.async_case',
   'C:\\Python310\\lib\\unittest\\async_case.py',
   'PYMODULE'),
  ('asyncio', 'C:\\Python310\\lib\\asyncio\\__init__.py', 'PYMODULE'),
  ('asyncio.unix_events',
   'C:\\Python310\\lib\\asyncio\\unix_events.py',
   'PYMODULE'),
  ('asyncio.log', 'C:\\Python310\\lib\\asyncio\\log.py', 'PYMODULE'),
  ('socket', 'C:\\Python310\\lib\\socket.py', 'PYMODULE'),
  ('asyncio.windows_events',
   'C:\\Python310\\lib\\asyncio\\windows_events.py',
   'PYMODULE'),
  ('asyncio.windows_utils',
   'C:\\Python310\\lib\\asyncio\\windows_utils.py',
   'PYMODULE'),
  ('tempfile', 'C:\\Python310\\lib\\tempfile.py', 'PYMODULE'),
  ('asyncio.selector_events',
   'C:\\Python310\\lib\\asyncio\\selector_events.py',
   'PYMODULE'),
  ('ssl', 'C:\\Python310\\lib\\ssl.py', 'PYMODULE'),
  ('base64', 'C:\\Python310\\lib\\base64.py', 'PYMODULE'),
  ('getopt', 'C:\\Python310\\lib\\getopt.py', 'PYMODULE'),
  ('asyncio.proactor_events',
   'C:\\Python310\\lib\\asyncio\\proactor_events.py',
   'PYMODULE'),
  ('asyncio.base_subprocess',
   'C:\\Python310\\lib\\asyncio\\base_subprocess.py',
   'PYMODULE'),
  ('asyncio.threads', 'C:\\Python310\\lib\\asyncio\\threads.py', 'PYMODULE'),
  ('asyncio.subprocess',
   'C:\\Python310\\lib\\asyncio\\subprocess.py',
   'PYMODULE'),
  ('asyncio.streams', 'C:\\Python310\\lib\\asyncio\\streams.py', 'PYMODULE'),
  ('asyncio.queues', 'C:\\Python310\\lib\\asyncio\\queues.py', 'PYMODULE'),
  ('asyncio.runners', 'C:\\Python310\\lib\\asyncio\\runners.py', 'PYMODULE'),
  ('asyncio.events', 'C:\\Python310\\lib\\asyncio\\events.py', 'PYMODULE'),
  ('asyncio.base_events',
   'C:\\Python310\\lib\\asyncio\\base_events.py',
   'PYMODULE'),
  ('concurrent.futures',
   'C:\\Python310\\lib\\concurrent\\futures\\__init__.py',
   'PYMODULE'),
  ('concurrent.futures.thread',
   'C:\\Python310\\lib\\concurrent\\futures\\thread.py',
   'PYMODULE'),
  ('queue', 'C:\\Python310\\lib\\queue.py', 'PYMODULE'),
  ('concurrent.futures.process',
   'C:\\Python310\\lib\\concurrent\\futures\\process.py',
   'PYMODULE'),
  ('multiprocessing.synchronize',
   'C:\\Python310\\lib\\multiprocessing\\synchronize.py',
   'PYMODULE'),
  ('multiprocessing.heap',
   'C:\\Python310\\lib\\multiprocessing\\heap.py',
   'PYMODULE'),
  ('multiprocessing.resource_tracker',
   'C:\\Python310\\lib\\multiprocessing\\resource_tracker.py',
   'PYMODULE'),
  ('multiprocessing.spawn',
   'C:\\Python310\\lib\\multiprocessing\\spawn.py',
   'PYMODULE'),
  ('runpy', 'C:\\Python310\\lib\\runpy.py', 'PYMODULE'),
  ('pkgutil', 'C:\\Python310\\lib\\pkgutil.py', 'PYMODULE'),
  ('zipimport', 'C:\\Python310\\lib\\zipimport.py', 'PYMODULE'),
  ('multiprocessing.util',
   'C:\\Python310\\lib\\multiprocessing\\util.py',
   'PYMODULE'),
  ('multiprocessing.forkserver',
   'C:\\Python310\\lib\\multiprocessing\\forkserver.py',
   'PYMODULE'),
  ('multiprocessing.process',
   'C:\\Python310\\lib\\multiprocessing\\process.py',
   'PYMODULE'),
  ('multiprocessing.context',
   'C:\\Python310\\lib\\multiprocessing\\context.py',
   'PYMODULE'),
  ('multiprocessing.popen_spawn_win32',
   'C:\\Python310\\lib\\multiprocessing\\popen_spawn_win32.py',
   'PYMODULE'),
  ('multiprocessing.popen_forkserver',
   'C:\\Python310\\lib\\multiprocessing\\popen_forkserver.py',
   'PYMODULE'),
  ('multiprocessing.popen_spawn_posix',
   'C:\\Python310\\lib\\multiprocessing\\popen_spawn_posix.py',
   'PYMODULE'),
  ('multiprocessing.popen_fork',
   'C:\\Python310\\lib\\multiprocessing\\popen_fork.py',
   'PYMODULE'),
  ('multiprocessing.sharedctypes',
   'C:\\Python310\\lib\\multiprocessing\\sharedctypes.py',
   'PYMODULE'),
  ('ctypes', 'C:\\Python310\\lib\\ctypes\\__init__.py', 'PYMODULE'),
  ('ctypes._endian', 'C:\\Python310\\lib\\ctypes\\_endian.py', 'PYMODULE'),
  ('multiprocessing.pool',
   'C:\\Python310\\lib\\multiprocessing\\pool.py',
   'PYMODULE'),
  ('multiprocessing.dummy',
   'C:\\Python310\\lib\\multiprocessing\\dummy\\__init__.py',
   'PYMODULE'),
  ('multiprocessing.dummy.connection',
   'C:\\Python310\\lib\\multiprocessing\\dummy\\connection.py',
   'PYMODULE'),
  ('multiprocessing.managers',
   'C:\\Python310\\lib\\multiprocessing\\managers.py',
   'PYMODULE'),
  ('multiprocessing.shared_memory',
   'C:\\Python310\\lib\\multiprocessing\\shared_memory.py',
   'PYMODULE'),
  ('secrets', 'C:\\Python310\\lib\\secrets.py', 'PYMODULE'),
  ('hmac', 'C:\\Python310\\lib\\hmac.py', 'PYMODULE'),
  ('multiprocessing.reduction',
   'C:\\Python310\\lib\\multiprocessing\\reduction.py',
   'PYMODULE'),
  ('multiprocessing.resource_sharer',
   'C:\\Python310\\lib\\multiprocessing\\resource_sharer.py',
   'PYMODULE'),
  ('multiprocessing.queues',
   'C:\\Python310\\lib\\multiprocessing\\queues.py',
   'PYMODULE'),
  ('multiprocessing.connection',
   'C:\\Python310\\lib\\multiprocessing\\connection.py',
   'PYMODULE'),
  ('xmlrpc.client', 'C:\\Python310\\lib\\xmlrpc\\client.py', 'PYMODULE'),
  ('xmlrpc', 'C:\\Python310\\lib\\xmlrpc\\__init__.py', 'PYMODULE'),
  ('gzip', 'C:\\Python310\\lib\\gzip.py', 'PYMODULE'),
  ('_compression', 'C:\\Python310\\lib\\_compression.py', 'PYMODULE'),
  ('xml.parsers.expat',
   'C:\\Python310\\lib\\xml\\parsers\\expat.py',
   'PYMODULE'),
  ('xml.parsers', 'C:\\Python310\\lib\\xml\\parsers\\__init__.py', 'PYMODULE'),
  ('xml', 'C:\\Python310\\lib\\xml\\__init__.py', 'PYMODULE'),
  ('xml.sax.expatreader',
   'C:\\Python310\\lib\\xml\\sax\\expatreader.py',
   'PYMODULE'),
  ('xml.sax.saxutils', 'C:\\Python310\\lib\\xml\\sax\\saxutils.py', 'PYMODULE'),
  ('urllib.request', 'C:\\Python310\\lib\\urllib\\request.py', 'PYMODULE'),
  ('getpass', 'C:\\Python310\\lib\\getpass.py', 'PYMODULE'),
  ('nturl2path', 'C:\\Python310\\lib\\nturl2path.py', 'PYMODULE'),
  ('ftplib', 'C:\\Python310\\lib\\ftplib.py', 'PYMODULE'),
  ('netrc', 'C:\\Python310\\lib\\netrc.py', 'PYMODULE'),
  ('shlex', 'C:\\Python310\\lib\\shlex.py', 'PYMODULE'),
  ('mimetypes', 'C:\\Python310\\lib\\mimetypes.py', 'PYMODULE'),
  ('http.cookiejar', 'C:\\Python310\\lib\\http\\cookiejar.py', 'PYMODULE'),
  ('http', 'C:\\Python310\\lib\\http\\__init__.py', 'PYMODULE'),
  ('urllib.response', 'C:\\Python310\\lib\\urllib\\response.py', 'PYMODULE'),
  ('urllib.error', 'C:\\Python310\\lib\\urllib\\error.py', 'PYMODULE'),
  ('xml.sax', 'C:\\Python310\\lib\\xml\\sax\\__init__.py', 'PYMODULE'),
  ('xml.sax.handler', 'C:\\Python310\\lib\\xml\\sax\\handler.py', 'PYMODULE'),
  ('xml.sax._exceptions',
   'C:\\Python310\\lib\\xml\\sax\\_exceptions.py',
   'PYMODULE'),
  ('xml.sax.xmlreader',
   'C:\\Python310\\lib\\xml\\sax\\xmlreader.py',
   'PYMODULE'),
  ('urllib.parse', 'C:\\Python310\\lib\\urllib\\parse.py', 'PYMODULE'),
  ('http.client', 'C:\\Python310\\lib\\http\\client.py', 'PYMODULE'),
  ('email.parser', 'C:\\Python310\\lib\\email\\parser.py', 'PYMODULE'),
  ('email.feedparser', 'C:\\Python310\\lib\\email\\feedparser.py', 'PYMODULE'),
  ('multiprocessing',
   'C:\\Python310\\lib\\multiprocessing\\__init__.py',
   'PYMODULE'),
  ('concurrent.futures._base',
   'C:\\Python310\\lib\\concurrent\\futures\\_base.py',
   'PYMODULE'),
  ('concurrent', 'C:\\Python310\\lib\\concurrent\\__init__.py', 'PYMODULE'),
  ('asyncio.trsock', 'C:\\Python310\\lib\\asyncio\\trsock.py', 'PYMODULE'),
  ('asyncio.staggered',
   'C:\\Python310\\lib\\asyncio\\staggered.py',
   'PYMODULE'),
  ('asyncio.tasks', 'C:\\Python310\\lib\\asyncio\\tasks.py', 'PYMODULE'),
  ('asyncio.base_tasks',
   'C:\\Python310\\lib\\asyncio\\base_tasks.py',
   'PYMODULE'),
  ('asyncio.locks', 'C:\\Python310\\lib\\asyncio\\locks.py', 'PYMODULE'),
  ('asyncio.mixins', 'C:\\Python310\\lib\\asyncio\\mixins.py', 'PYMODULE'),
  ('asyncio.sslproto', 'C:\\Python310\\lib\\asyncio\\sslproto.py', 'PYMODULE'),
  ('asyncio.transports',
   'C:\\Python310\\lib\\asyncio\\transports.py',
   'PYMODULE'),
  ('asyncio.protocols',
   'C:\\Python310\\lib\\asyncio\\protocols.py',
   'PYMODULE'),
  ('asyncio.futures', 'C:\\Python310\\lib\\asyncio\\futures.py', 'PYMODULE'),
  ('asyncio.exceptions',
   'C:\\Python310\\lib\\asyncio\\exceptions.py',
   'PYMODULE'),
  ('asyncio.coroutines',
   'C:\\Python310\\lib\\asyncio\\coroutines.py',
   'PYMODULE'),
  ('asyncio.base_futures',
   'C:\\Python310\\lib\\asyncio\\base_futures.py',
   'PYMODULE'),
  ('asyncio.format_helpers',
   'C:\\Python310\\lib\\asyncio\\format_helpers.py',
   'PYMODULE'),
  ('asyncio.constants',
   'C:\\Python310\\lib\\asyncio\\constants.py',
   'PYMODULE'),
  ('unittest.signals', 'C:\\Python310\\lib\\unittest\\signals.py', 'PYMODULE'),
  ('unittest.main', 'C:\\Python310\\lib\\unittest\\main.py', 'PYMODULE'),
  ('unittest.runner', 'C:\\Python310\\lib\\unittest\\runner.py', 'PYMODULE'),
  ('unittest.loader', 'C:\\Python310\\lib\\unittest\\loader.py', 'PYMODULE'),
  ('unittest.suite', 'C:\\Python310\\lib\\unittest\\suite.py', 'PYMODULE'),
  ('unittest.case', 'C:\\Python310\\lib\\unittest\\case.py', 'PYMODULE'),
  ('unittest._log', 'C:\\Python310\\lib\\unittest\\_log.py', 'PYMODULE'),
  ('unittest.result', 'C:\\Python310\\lib\\unittest\\result.py', 'PYMODULE'),
  ('unittest.util', 'C:\\Python310\\lib\\unittest\\util.py', 'PYMODULE'),
  ('pdb', 'C:\\Python310\\lib\\pdb.py', 'PYMODULE'),
  ('pydoc', 'C:\\Python310\\lib\\pydoc.py', 'PYMODULE'),
  ('webbrowser', 'C:\\Python310\\lib\\webbrowser.py', 'PYMODULE'),
  ('http.server', 'C:\\Python310\\lib\\http\\server.py', 'PYMODULE'),
  ('socketserver', 'C:\\Python310\\lib\\socketserver.py', 'PYMODULE'),
  ('html', 'C:\\Python310\\lib\\html\\__init__.py', 'PYMODULE'),
  ('html.entities', 'C:\\Python310\\lib\\html\\entities.py', 'PYMODULE'),
  ('pydoc_data.topics',
   'C:\\Python310\\lib\\pydoc_data\\topics.py',
   'PYMODULE'),
  ('pydoc_data', 'C:\\Python310\\lib\\pydoc_data\\__init__.py', 'PYMODULE'),
  ('tty', 'C:\\Python310\\lib\\tty.py', 'PYMODULE'),
  ('sysconfig', 'C:\\Python310\\lib\\sysconfig.py', 'PYMODULE'),
  ('_aix_support', 'C:\\Python310\\lib\\_aix_support.py', 'PYMODULE'),
  ('_bootsubprocess', 'C:\\Python310\\lib\\_bootsubprocess.py', 'PYMODULE'),
  ('_osx_support', 'C:\\Python310\\lib\\_osx_support.py', 'PYMODULE'),
  ('platform', 'C:\\Python310\\lib\\platform.py', 'PYMODULE'),
  ('plistlib', 'C:\\Python310\\lib\\plistlib.py', 'PYMODULE'),
  ('glob', 'C:\\Python310\\lib\\glob.py', 'PYMODULE'),
  ('code', 'C:\\Python310\\lib\\code.py', 'PYMODULE'),
  ('codeop', 'C:\\Python310\\lib\\codeop.py', 'PYMODULE'),
  ('bdb', 'C:\\Python310\\lib\\bdb.py', 'PYMODULE'),
  ('cmd', 'C:\\Python310\\lib\\cmd.py', 'PYMODULE'),
  ('difflib', 'C:\\Python310\\lib\\difflib.py', 'PYMODULE'),
  ('__future__', 'C:\\Python310\\lib\\__future__.py', 'PYMODULE'),
  ('_compat_pickle', 'C:\\Python310\\lib\\_compat_pickle.py', 'PYMODULE'),
  ('bisect', 'C:\\Python310\\lib\\bisect.py', 'PYMODULE'),
  ('email._encoded_words',
   'C:\\Python310\\lib\\email\\_encoded_words.py',
   'PYMODULE'),
  ('email.charset', 'C:\\Python310\\lib\\email\\charset.py', 'PYMODULE'),
  ('email.encoders', 'C:\\Python310\\lib\\email\\encoders.py', 'PYMODULE'),
  ('email.base64mime', 'C:\\Python310\\lib\\email\\base64mime.py', 'PYMODULE'),
  ('email._policybase',
   'C:\\Python310\\lib\\email\\_policybase.py',
   'PYMODULE'),
  ('email.header', 'C:\\Python310\\lib\\email\\header.py', 'PYMODULE'),
  ('email.errors', 'C:\\Python310\\lib\\email\\errors.py', 'PYMODULE'),
  ('email.utils', 'C:\\Python310\\lib\\email\\utils.py', 'PYMODULE'),
  ('email._parseaddr', 'C:\\Python310\\lib\\email\\_parseaddr.py', 'PYMODULE'),
  ('quopri', 'C:\\Python310\\lib\\quopri.py', 'PYMODULE'),
  ('uu', 'C:\\Python310\\lib\\uu.py', 'PYMODULE'),
  ('optparse', 'C:\\Python310\\lib\\optparse.py', 'PYMODULE'),
  ('email', 'C:\\Python310\\lib\\email\\__init__.py', 'PYMODULE'),
  ('csv', 'C:\\Python310\\lib\\csv.py', 'PYMODULE'),
  ('importlib.readers',
   'C:\\Python310\\lib\\importlib\\readers.py',
   'PYMODULE'),
  ('pathlib', 'C:\\Python310\\lib\\pathlib.py', 'PYMODULE'),
  ('struct', 'C:\\Python310\\lib\\struct.py', 'PYMODULE'),
  ('importlib.util', 'C:\\Python310\\lib\\importlib\\util.py', 'PYMODULE'),
  ('tarfile', 'C:\\Python310\\lib\\tarfile.py', 'PYMODULE'),
  ('lzma', 'C:\\Python310\\lib\\lzma.py', 'PYMODULE'),
  ('bz2', 'C:\\Python310\\lib\\bz2.py', 'PYMODULE'),
  ('fnmatch', 'C:\\Python310\\lib\\fnmatch.py', 'PYMODULE'),
  ('copy', 'C:\\Python310\\lib\\copy.py', 'PYMODULE'),
  ('gettext', 'C:\\Python310\\lib\\gettext.py', 'PYMODULE'),
  ('ntpath', 'C:\\Python310\\lib\\ntpath.py', 'PYMODULE'),
  ('genericpath', 'C:\\Python310\\lib\\genericpath.py', 'PYMODULE'),
  ('posixpath', 'C:\\Python310\\lib\\posixpath.py', 'PYMODULE'),
  ('stat', 'C:\\Python310\\lib\\stat.py', 'PYMODULE'),
  ('stringprep', 'C:\\Python310\\lib\\stringprep.py', 'PYMODULE'),
  ('_py_abc', 'C:\\Python310\\lib\\_py_abc.py', 'PYMODULE'),
  ('tracemalloc', 'C:\\Python310\\lib\\tracemalloc.py', 'PYMODULE'),
  ('software.gui',
   'S:\\ApplicationNative\\yaltc\\project\\software\\gui.py',
   'PYMODULE'),
  ('software',
   'S:\\ApplicationNative\\yaltc\\project\\software\\__init__.py',
   'PYMODULE'),
  ('script.media',
   'S:\\ApplicationNative\\yaltc\\project\\script\\media.py',
   'PYMODULE'),
  ('script',
   'S:\\ApplicationNative\\yaltc\\project\\script\\__init__.py',
   'PYMODULE'),
  ('thefuzz.fuzz',
   'C:\\Python310\\lib\\site-packages\\thefuzz\\fuzz.py',
   'PYMODULE'),
  ('thefuzz.utils',
   'C:\\Python310\\lib\\site-packages\\thefuzz\\utils.py',
   'PYMODULE'),
  ('thefuzz.string_processing',
   'C:\\Python310\\lib\\site-packages\\thefuzz\\string_processing.py',
   'PYMODULE'),
  ('thefuzz.StringMatcher',
   'C:\\Python310\\lib\\site-packages\\thefuzz\\StringMatcher.py',
   'PYMODULE'),
  ('Levenshtein',
   'C:\\Python310\\lib\\site-packages\\Levenshtein\\__init__.py',
   'PYMODULE'),
  ('thefuzz',
   'C:\\Python310\\lib\\site-packages\\thefuzz\\__init__.py',
   'PYMODULE'),
  ('ffmpeg',
   'C:\\Python310\\lib\\site-packages\\ffmpeg\\__init__.py',
   'PYMODULE'),
  ('ffmpeg._view',
   'C:\\Python310\\lib\\site-packages\\ffmpeg\\_view.py',
   'PYMODULE'),
  ('ffmpeg.dag',
   'C:\\Python310\\lib\\site-packages\\ffmpeg\\dag.py',
   'PYMODULE'),
  ('ffmpeg._utils',
   'C:\\Python310\\lib\\site-packages\\ffmpeg\\_utils.py',
   'PYMODULE'),
  ('past.builtins',
   'C:\\Python310\\lib\\site-packages\\past\\builtins\\__init__.py',
   'PYMODULE'),
  ('past.utils',
   'C:\\Python310\\lib\\site-packages\\past\\utils\\__init__.py',
   'PYMODULE'),
  ('past.builtins.misc',
   'C:\\Python310\\lib\\site-packages\\past\\builtins\\misc.py',
   'PYMODULE'),
  ('imp', 'C:\\Python310\\lib\\imp.py', 'PYMODULE'),
  ('past.types.oldstr',
   'C:\\Python310\\lib\\site-packages\\past\\types\\oldstr.py',
   'PYMODULE'),
  ('past.types.olddict',
   'C:\\Python310\\lib\\site-packages\\past\\types\\olddict.py',
   'PYMODULE'),
  ('past.types.basestring',
   'C:\\Python310\\lib\\site-packages\\past\\types\\basestring.py',
   'PYMODULE'),
  ('past.types',
   'C:\\Python310\\lib\\site-packages\\past\\types\\__init__.py',
   'PYMODULE'),
  ('past.builtins.noniterators',
   'C:\\Python310\\lib\\site-packages\\past\\builtins\\noniterators.py',
   'PYMODULE'),
  ('past', 'C:\\Python310\\lib\\site-packages\\past\\__init__.py', 'PYMODULE'),
  ('future',
   'C:\\Python310\\lib\\site-packages\\future\\__init__.py',
   'PYMODULE'),
  ('future.standard_library',
   'C:\\Python310\\lib\\site-packages\\future\\standard_library\\__init__.py',
   'PYMODULE'),
  ('future.moves.dbm.ndbm',
   'C:\\Python310\\lib\\site-packages\\future\\moves\\dbm\\ndbm.py',
   'PYMODULE'),
  ('dbm.ndbm', 'C:\\Python310\\lib\\dbm\\ndbm.py', 'PYMODULE'),
  ('future.moves.dbm.gnu',
   'C:\\Python310\\lib\\site-packages\\future\\moves\\dbm\\gnu.py',
   'PYMODULE'),
  ('dbm.gnu', 'C:\\Python310\\lib\\dbm\\gnu.py', 'PYMODULE'),
  ('future.moves.dbm.dumb',
   'C:\\Python310\\lib\\site-packages\\future\\moves\\dbm\\dumb.py',
   'PYMODULE'),
  ('dbm.dumb', 'C:\\Python310\\lib\\dbm\\dumb.py', 'PYMODULE'),
  ('future.moves.dbm',
   'C:\\Python310\\lib\\site-packages\\future\\moves\\dbm\\__init__.py',
   'PYMODULE'),
  ('future.moves',
   'C:\\Python310\\lib\\site-packages\\future\\moves\\__init__.py',
   'PYMODULE'),
  ('dbm', 'C:\\Python310\\lib\\dbm\\__init__.py', 'PYMODULE'),
  ('future.moves.test.support',
   'C:\\Python310\\lib\\site-packages\\future\\moves\\test\\support.py',
   'PYMODULE'),
  ('test.test_support',
   'C:\\Python310\\lib\\test\\test_support.py',
   'PYMODULE'),
  ('sched', 'C:\\Python310\\lib\\sched.py', 'PYMODULE'),
  ('test.support.warnings_helper',
   'C:\\Python310\\lib\\test\\support\\warnings_helper.py',
   'PYMODULE'),
  ('test.support.socket_helper',
   'C:\\Python310\\lib\\test\\support\\socket_helper.py',
   'PYMODULE'),
  ('nntplib', 'C:\\Python310\\lib\\nntplib.py', 'PYMODULE'),
  ('test.support.script_helper',
   'C:\\Python310\\lib\\test\\support\\script_helper.py',
   'PYMODULE'),
  ('test.support.os_helper',
   'C:\\Python310\\lib\\test\\support\\os_helper.py',
   'PYMODULE'),
  ('test.support.import_helper',
   'C:\\Python310\\lib\\test\\support\\import_helper.py',
   'PYMODULE'),
  ('test.support',
   'C:\\Python310\\lib\\test\\support\\__init__.py',
   'PYMODULE'),
  ('distutils.errors', 'C:\\Python310\\lib\\distutils\\errors.py', 'PYMODULE'),
  ('distutils.spawn', 'C:\\Python310\\lib\\distutils\\spawn.py', 'PYMODULE'),
  ('distutils.log', 'C:\\Python310\\lib\\distutils\\log.py', 'PYMODULE'),
  ('distutils.debug', 'C:\\Python310\\lib\\distutils\\debug.py', 'PYMODULE'),
  ('distutils.sysconfig',
   'C:\\Python310\\lib\\distutils\\sysconfig.py',
   'PYMODULE'),
  ('distutils.text_file',
   'C:\\Python310\\lib\\distutils\\text_file.py',
   'PYMODULE'),
  ('distutils.ccompiler',
   'C:\\Python310\\lib\\distutils\\ccompiler.py',
   'PYMODULE'),
  ('distutils.fancy_getopt',
   'C:\\Python310\\lib\\distutils\\fancy_getopt.py',
   'PYMODULE'),
  ('distutils.util', 'C:\\Python310\\lib\\distutils\\util.py', 'PYMODULE'),
  ('distutils.filelist',
   'C:\\Python310\\lib\\distutils\\filelist.py',
   'PYMODULE'),
  ('distutils.dep_util',
   'C:\\Python310\\lib\\distutils\\dep_util.py',
   'PYMODULE'),
  ('distutils.dir_util',
   'C:\\Python310\\lib\\distutils\\dir_util.py',
   'PYMODULE'),
  ('distutils.file_util',
   'C:\\Python310\\lib\\distutils\\file_util.py',
   'PYMODULE'),
  ('distutils', 'C:\\Python310\\lib\\distutils\\__init__.py', 'PYMODULE'),
  ('ctypes.util', 'C:\\Python310\\lib\\ctypes\\util.py', 'PYMODULE'),
  ('ctypes._aix', 'C:\\Python310\\lib\\ctypes\\_aix.py', 'PYMODULE'),
  ('ctypes.macholib.dyld',
   'C:\\Python310\\lib\\ctypes\\macholib\\dyld.py',
   'PYMODULE'),
  ('ctypes.macholib',
   'C:\\Python310\\lib\\ctypes\\macholib\\__init__.py',
   'PYMODULE'),
  ('ctypes.macholib.dylib',
   'C:\\Python310\\lib\\ctypes\\macholib\\dylib.py',
   'PYMODULE'),
  ('ctypes.macholib.framework',
   'C:\\Python310\\lib\\ctypes\\macholib\\framework.py',
   'PYMODULE'),
  ('ctypes.wintypes', 'C:\\Python310\\lib\\ctypes\\wintypes.py', 'PYMODULE'),
  ('test.support.testresult',
   'C:\\Python310\\lib\\test\\support\\testresult.py',
   'PYMODULE'),
  ('xml.etree.ElementTree',
   'C:\\Python310\\lib\\xml\\etree\\ElementTree.py',
   'PYMODULE'),
  ('xml.etree.cElementTree',
   'C:\\Python310\\lib\\xml\\etree\\cElementTree.py',
   'PYMODULE'),
  ('xml.etree.ElementInclude',
   'C:\\Python310\\lib\\xml\\etree\\ElementInclude.py',
   'PYMODULE'),
  ('xml.etree.ElementPath',
   'C:\\Python310\\lib\\xml\\etree\\ElementPath.py',
   'PYMODULE'),
  ('xml.etree', 'C:\\Python310\\lib\\xml\\etree\\__init__.py', 'PYMODULE'),
  ('future.moves.test',
   'C:\\Python310\\lib\\site-packages\\future\\moves\\test\\__init__.py',
   'PYMODULE'),
  ('test', 'C:\\Python310\\lib\\test\\__init__.py', 'PYMODULE'),
  ('future.backports.urllib.robotparser',
   'C:\\Python310\\lib\\site-packages\\future\\backports\\urllib\\robotparser.py',
   'PYMODULE'),
  ('future.backports',
   'C:\\Python310\\lib\\site-packages\\future\\backports\\__init__.py',
   'PYMODULE'),
  ('future.backports.misc',
   'C:\\Python310\\lib\\site-packages\\future\\backports\\misc.py',
   'PYMODULE'),
  ('future.backports.email',
   'C:\\Python310\\lib\\site-packages\\future\\backports\\email\\__init__.py',
   'PYMODULE'),
  ('future.backports.email.parser',
   'C:\\Python310\\lib\\site-packages\\future\\backports\\email\\parser.py',
   'PYMODULE'),
  ('future.backports.email._policybase',
   'C:\\Python310\\lib\\site-packages\\future\\backports\\email\\_policybase.py',
   'PYMODULE'),
  ('future.backports.email.charset',
   'C:\\Python310\\lib\\site-packages\\future\\backports\\email\\charset.py',
   'PYMODULE'),
  ('future.backports.email.encoders',
   'C:\\Python310\\lib\\site-packages\\future\\backports\\email\\encoders.py',
   'PYMODULE'),
  ('future.backports.email.feedparser',
   'C:\\Python310\\lib\\site-packages\\future\\backports\\email\\feedparser.py',
   'PYMODULE'),
  ('future.backports.email.message',
   'C:\\Python310\\lib\\site-packages\\future\\backports\\email\\message.py',
   'PYMODULE'),
  ('future.backports.email.iterators',
   'C:\\Python310\\lib\\site-packages\\future\\backports\\email\\iterators.py',
   'PYMODULE'),
  ('future.backports.email.generator',
   'C:\\Python310\\lib\\site-packages\\future\\backports\\email\\generator.py',
   'PYMODULE'),
  ('future.backports.email._encoded_words',
   'C:\\Python310\\lib\\site-packages\\future\\backports\\email\\_encoded_words.py',
   'PYMODULE'),
  ('future.backports.email.header',
   'C:\\Python310\\lib\\site-packages\\future\\backports\\email\\header.py',
   'PYMODULE'),
  ('future.backports.email.quoprimime',
   'C:\\Python310\\lib\\site-packages\\future\\backports\\email\\quoprimime.py',
   'PYMODULE'),
  ('future.backports.email.base64mime',
   'C:\\Python310\\lib\\site-packages\\future\\backports\\email\\base64mime.py',
   'PYMODULE'),
  ('future.backports.email.utils',
   'C:\\Python310\\lib\\site-packages\\future\\backports\\email\\utils.py',
   'PYMODULE'),
  ('future.backports.email._parseaddr',
   'C:\\Python310\\lib\\site-packages\\future\\backports\\email\\_parseaddr.py',
   'PYMODULE'),
  ('future.backports.email.errors',
   'C:\\Python310\\lib\\site-packages\\future\\backports\\email\\errors.py',
   'PYMODULE'),
  ('future.utils.surrogateescape',
   'C:\\Python310\\lib\\site-packages\\future\\utils\\surrogateescape.py',
   'PYMODULE'),
  ('future.backports.datetime',
   'C:\\Python310\\lib\\site-packages\\future\\backports\\datetime.py',
   'PYMODULE'),
  ('future.builtins',
   'C:\\Python310\\lib\\site-packages\\future\\builtins\\__init__.py',
   'PYMODULE'),
  ('future.types.newstr',
   'C:\\Python310\\lib\\site-packages\\future\\types\\newstr.py',
   'PYMODULE'),
  ('future.types.newrange',
   'C:\\Python310\\lib\\site-packages\\future\\types\\newrange.py',
   'PYMODULE'),
  ('future.types.newobject',
   'C:\\Python310\\lib\\site-packages\\future\\types\\newobject.py',
   'PYMODULE'),
  ('future.types.newlist',
   'C:\\Python310\\lib\\site-packages\\future\\types\\newlist.py',
   'PYMODULE'),
  ('future.types.newint',
   'C:\\Python310\\lib\\site-packages\\future\\types\\newint.py',
   'PYMODULE'),
  ('future.types.newdict',
   'C:\\Python310\\lib\\site-packages\\future\\types\\newdict.py',
   'PYMODULE'),
  ('future.types.newbytes',
   'C:\\Python310\\lib\\site-packages\\future\\types\\newbytes.py',
   'PYMODULE'),
  ('future.types',
   'C:\\Python310\\lib\\site-packages\\future\\types\\__init__.py',
   'PYMODULE'),
  ('future.builtins.misc',
   'C:\\Python310\\lib\\site-packages\\future\\builtins\\misc.py',
   'PYMODULE'),
  ('future.builtins.new_min_max',
   'C:\\Python310\\lib\\site-packages\\future\\builtins\\new_min_max.py',
   'PYMODULE'),
  ('future.builtins.newsuper',
   'C:\\Python310\\lib\\site-packages\\future\\builtins\\newsuper.py',
   'PYMODULE'),
  ('future.builtins.newround',
   'C:\\Python310\\lib\\site-packages\\future\\builtins\\newround.py',
   'PYMODULE'),
  ('future.builtins.newnext',
   'C:\\Python310\\lib\\site-packages\\future\\builtins\\newnext.py',
   'PYMODULE'),
  ('future.builtins.iterators',
   'C:\\Python310\\lib\\site-packages\\future\\builtins\\iterators.py',
   'PYMODULE'),
  ('future.backports.urllib.error',
   'C:\\Python310\\lib\\site-packages\\future\\backports\\urllib\\error.py',
   'PYMODULE'),
  ('future.backports.urllib.parse',
   'C:\\Python310\\lib\\site-packages\\future\\backports\\urllib\\parse.py',
   'PYMODULE'),
  ('future.backports.urllib.response',
   'C:\\Python310\\lib\\site-packages\\future\\backports\\urllib\\response.py',
   'PYMODULE'),
  ('future.backports.urllib.request',
   'C:\\Python310\\lib\\site-packages\\future\\backports\\urllib\\request.py',
   'PYMODULE'),
  ('future.backports.http.cookiejar',
   'C:\\Python310\\lib\\site-packages\\future\\backports\\http\\cookiejar.py',
   'PYMODULE'),
  ('future.backports.http.client',
   'C:\\Python310\\lib\\site-packages\\future\\backports\\http\\client.py',
   'PYMODULE'),
  ('future.backports.http',
   'C:\\Python310\\lib\\site-packages\\future\\backports\\http\\__init__.py',
   'PYMODULE'),
  ('future.backports.urllib',
   'C:\\Python310\\lib\\site-packages\\future\\backports\\urllib\\__init__.py',
   'PYMODULE'),
  ('future.utils',
   'C:\\Python310\\lib\\site-packages\\future\\utils\\__init__.py',
   'PYMODULE'),
  ('ffmpeg._run',
   'C:\\Python310\\lib\\site-packages\\ffmpeg\\_run.py',
   'PYMODULE'),
  ('ffmpeg._probe',
   'C:\\Python310\\lib\\site-packages\\ffmpeg\\_probe.py',
   'PYMODULE'),
  ('json', 'C:\\Python310\\lib\\json\\__init__.py', 'PYMODULE'),
  ('json.encoder', 'C:\\Python310\\lib\\json\\encoder.py', 'PYMODULE'),
  ('json.decoder', 'C:\\Python310\\lib\\json\\decoder.py', 'PYMODULE'),
  ('json.scanner', 'C:\\Python310\\lib\\json\\scanner.py', 'PYMODULE'),
  ('ffmpeg._filters',
   'C:\\Python310\\lib\\site-packages\\ffmpeg\\_filters.py',
   'PYMODULE'),
  ('ffmpeg._ffmpeg',
   'C:\\Python310\\lib\\site-packages\\ffmpeg\\_ffmpeg.py',
   'PYMODULE'),
  ('ffmpeg.nodes',
   'C:\\Python310\\lib\\site-packages\\ffmpeg\\nodes.py',
   'PYMODULE'),
  ('script.script',
   'S:\\ApplicationNative\\yaltc\\project\\script\\script.py',
   'PYMODULE'),
  ('tkinter.ttk', 'C:\\Python310\\lib\\tkinter\\ttk.py', 'PYMODULE'),
  ('tkinter.messagebox',
   'C:\\Python310\\lib\\tkinter\\messagebox.py',
   'PYMODULE'),
  ('tkinter.commondialog',
   'C:\\Python310\\lib\\tkinter\\commondialog.py',
   'PYMODULE'),
  ('tkinter.filedialog',
   'C:\\Python310\\lib\\tkinter\\filedialog.py',
   'PYMODULE'),
  ('tkinter.simpledialog',
   'C:\\Python310\\lib\\tkinter\\simpledialog.py',
   'PYMODULE'),
  ('tkinter.dialog', 'C:\\Python310\\lib\\tkinter\\dialog.py', 'PYMODULE'),
  ('tkinter', 'C:\\Python310\\lib\\tkinter\\__init__.py', 'PYMODULE'),
  ('tkinter.constants',
   'C:\\Python310\\lib\\tkinter\\constants.py',
   'PYMODULE')])
